void drawHud()
{
/*
	pos_score = '5 5';//prevent noref warning
	pos_score_x = screen_center_x - strlen(str_score)*7;

	drawstring(pos_score, score, '15 15', '1 1 1', 1, 0);

	drawpic(vector position, string pic, vector size, vector rgb, float alpha, 0);
	drawfill(vector position, vector size, vector rgb, float alpha,0);

//	
///////////
//
	healthNum = ceil(health/25);
	healthImg = strcat("gfx/health/",ftos(healthNum));

	string s_img;
	s_img = strcat("gfx/mButton", ftos(mButton));

	vector v_imgSize;
	v_imgSize = drawgetimagesize(s_img);

	drawpic([screen_center_x - (v_imgSize_x + 2) , screen_center_y - (v_imgSize_y + 2)], s_img, v_imgSize, '1 1 1', 0.8, 0);
*/
}