#define USE_CSQC_OPTIONALFUNCTIONS 1

// --------------------------------------------------------------------------
// BEGIN REQUIRED CSQC FUNCTIONS

// CSQC_Init : Called every time the CSQC code is initialized (essentially at map load)

void CSQC_Init(float apilevel, string enginename, float engineversion)
{
	//update when darkplaces CSQC_INIT accepts parameters 
		//or when another engine is csqc capable

	if(strtolower(enginename) == "fte quakeworld")
		f_engine = ENGINE_FTE;
	else
		f_engine = ENGINE_DP;
//	print(enginename);

}
// CSQC_Shutdown : Called every time the CSQC code is shutdown (changing maps, quitting, etc)
void CSQC_Shutdown(void)
{
}
// CSQC_ConsoleCommand : Used to parse commands in the console that have been registered with the "registercmd" function
// Return value should be 1 if CSQC handled the command, otherwise return 0 to have the engine handle it.
float CSQC_ConsoleCommand(string strMessage)
{
	local float nReturn;
		nReturn = TRUE;
		
	// Tokenize String
	tokenize(strMessage);
	
	// Acquire Command
	local string strCmd;
	strCmd = argv(0);
		
	switch(strCmd)
	{

		default:
			nReturn = FALSE;
			break;
	}
	
	return nReturn;
}
/*
	eventtype: 					0 = key down, 1 = key up, 2 = mouse move delta, 
								3 = mouse move absolute, 4 = accelerometer

	scancode: 					/ mouse x / accelerator x
	unicode(character code):  	/ mouse y / accelerometer y
	key device id:			 	/ mouse device id / accelerometer z
*/

// CSQC_InputEvent : Used to perform actions based on any key pressed or released by the client.
// Return value should be 1 if CSQC handled the key press, otherwise return 0 to have the key passed to the engine.
float CSQC_InputEvent(float eventType, float scanCode, float unicode, float deviceID)
{
	float f_SkipKey;

	f_SkipKey = FALSE;

	switch(eventType)
	{
		case IE_KEYDOWN:
			switch(scanCode)
			{
				case K_MOUSE1:
					mButton |= 1;
					break;

				case K_MOUSE2:
					mButton |= 2;
					break;

				case K_MOUSE3:
					mButton |= 4;
					break;

				case K_ESCAPE:	//dont fuck with the menu buttons. kthx
					f_SkipKey =FALSE;
					break;

				case K_ENTER:	//dont fuck with the menu buttons. kthx
					f_SkipKey = FALSE;	
					break;

				case K_TAB:
					break;

				default:
					break;
			}
			break;

		case IE_KEYUP:
			switch(scanCode)
			{
				case K_TAB:
					break;

				case K_MOUSE1:
					mButton -= 1;
					break;

				case K_MOUSE2:
					mButton -= 2;
					break;

				case K_MOUSE3:
					mButton -= 4;
					break;

				default:
					break;
			}
			break;

		case IE_MOUSEDELTA:

			vector oldmpos = mpos;

			mpos_x += scanCode;
			mpos_y += unicode;			
			mpos_z = deviceID;	//doesnt actually do anything

			//clamp mouse to screen
			if(!(pointInBounds(mpos, '0 0', screen_size)))
				mpos = oldmpos;

		case IE_MOUSEABS:
			break;

		//not sure if this is a delta. i imagine it is. if not change that from += to just =
		case IE_ACCELEROMETER:
			accel_x += scanCode;
			accel_y += unicode;
			accel_z += deviceID;
			break;

		case IE_FOCUS:
			break;

		case IE_JOYAXIS:
			break;

		default:
			break;
	}

	return f_SkipKey;
}

// END REQUIRED CSQC FUNCTIONS
// --------------------------------------------------------------------------

// --------------------------------------------------------------------------
// BEGIN OPTIONAL CSQC FUNCTIONS



#ifdef USE_CSQC_OPTIONALFUNCTIONS
// CSQC_Ent_Update : Called every frame that the server has indicated an update to the SSQC / CSQC entity has occured.
// The only parameter reflects if the entity is "new" to the client, meaning it just came into the client's PVS.

void CSQC_Ent_Update(float bIsNewEntity)
{
	float i;
	i = readbyte();
}
// CSQC_Ent_Remove : Called when the server requests a SSQC / CSQC entity to be removed.  Essentially call remove(self) as well.
void CSQC_Ent_Remove()
{
	remove(self);
}
// CSQC_Parse_StuffCmd : Provides the stuffcmd string in the first parameter that the server provided.  To execute standard behavior, simply execute localcmd with the string.
void CSQC_Parse_StuffCmd(string strMessage)
{	
	localcmd(strMessage);
}
// CSQC_Parse_Print : Provides the print string in the first parameter that the server provided.  To execute standard behavior, simply execute print with the string.
void CSQC_Parse_Print(string printmsg, float printlvl)
{
	print(printmsg);
}

// CSQC_Parse_CenterPrint : Provides the centerprint string in the first parameter that the server provided.  To execute standard behavior, simply execute cprint with the string.
float CSQC_Parse_CenterPrint(string strMessage)
{
	cprint(strMessage);

	return FALSE;
//	return TRUE;
}
// CSQC_Parse_TempEntity : Handles all temporary entity network data in the CSQC layer.
// You must ALWAYS first acquire the temporary ID, which is sent as a byte.
// Return value should be 1 if CSQC handled the temporary entity, otherwise return 0 to have the engine process the event.

float CSQC_Parse_TempEntity()
{
	local float bHandled;
		bHandled  = TRUE;
	// Acquire TE ID
	local float nTEID;
		nTEID = readbyte();
		
	switch(nTEID)
	{
		//case TE_GUNSHOT:
		//	Do something cool with TE_GUNSHOT!
		//	break;
		default:
			// No special logic for this temporary entity; return 0 so the engine can handle it
			bHandled = FALSE;
			break;
	}
		
	return bHandled;
}
#endif
