
void killTest(entity p)
{
	if(p.classname != "player")
		return;
	
	centerprint(p, "killed engage\n");
}


void killTest2(entity p)
{
	if(p.classname != "player")
		return;
	
	p.velocity = p.velocity + '0 0 1000';

	unregisterCallback(killTest2, EVENT_KILLED);
}
